<svg xmlns="http://www.w3.org/2000/svg" width="14" height="10" viewBox="0 0 14 10">
    <path fill="#FFF" fill-rule="nonzero" d="M13.8 4.498L9.638.197a.636.636 0 0 0-.92 0 .688.688 0 0 0 0 .95l3.053 3.154H.65c-.359 0-.65.301-.65.672 0 .371.291.672.65.672h11.12L8.717 8.8a.688.688 0 0 0 0 .95.638.638 0 0 0 .92 0l4.164-4.3a.688.688 0 0 0 0-.951z"/>
</svg>
