<svg xmlns="http://www.w3.org/2000/svg" width="50" height="50" viewBox="0 0 50 50">
    <g fill="none" fill-rule="evenodd" transform="translate(1 1)">
        <circle cx="24" cy="24" r="24" stroke="#FFB34A" stroke-width="1.333"/>
        <g fill="#FFB34A" fill-rule="nonzero" transform="translate(14 12)">
            <circle cx="10.135" cy="5.56" r="5.56"/>
            <path d="M10.135 13.9C4.57 13.9.058 18.41.058 23.977h20.154c0-5.566-4.511-10.077-10.077-10.077z"/>
        </g>
    </g>
</svg>
