<svg xmlns="http://www.w3.org/2000/svg" width="43" height="53" viewBox="0 0 43 53">
    <path fill="#2E4057" fill-rule="nonzero" d="M42.75 8.28C33.944 8.28 27.2 5.696 21.496 0 15.794 5.696 9.05 8.28.247 8.28c0 14.835-2.99 36.085 21.25 44.716 24.24-8.63 21.252-29.881 21.252-44.716zM19.736 34.385l-7.08-7.273 3.17-3.256 3.91 4.017 7.431-7.634 3.17 3.256-10.601 10.89z"/>
</svg>
