<svg xmlns="http://www.w3.org/2000/svg" width="16" height="16" viewBox="0 0 16 16">
    <g fill="#2E4057" fill-rule="nonzero">
        <path d="M14.727 1.262a4.217 4.217 0 0 0-5.955 0L5.299 4.734l3.943 3.942a4.634 4.634 0 0 1 2.975-1.098 4.65 4.65 0 0 1 1.836.377l.674-.737a4.217 4.217 0 0 0 0-5.956zM8.585 9.344L4.638 5.396 1.24 8.798a4.217 4.217 0 0 0 0 5.955c1.642 1.642 4.344 1.673 5.986.031l.69-.692a4.65 4.65 0 0 1-.378-1.835c0-1.107.403-2.111 1.047-2.913zM8.474 12.257c0 1.907 1.432 3.463 3.275 3.696V8.56c-1.843.232-3.275 1.789-3.275 3.696zM12.685 8.56v7.393c1.844-.233 3.276-1.79 3.276-3.696 0-1.907-1.432-3.464-3.276-3.696z"/>
    </g>
</svg>
