<svg xmlns="http://www.w3.org/2000/svg" width="16" height="16" viewBox="0 0 16 16">
    <g fill="none">
        <path fill="#FFB34A" d="M7.996 0c4.416 0 7.996 3.58 7.996 7.996s-3.58 7.996-7.996 7.996S0 12.412 0 7.996C-.013 3.592 3.547.013 7.95 0h.046z"/>
        <path fill="#FFF" d="M12.425 5.792L6.746 11.471 3.566 8.314 4.861 7.042 6.746 8.904 11.13 4.52z"/>
    </g>
</svg>
