<svg xmlns="http://www.w3.org/2000/svg" width="34" height="34" viewBox="0 0 34 34">
    <g fill="none" fill-rule="evenodd" transform="translate(1 1)">
        <circle cx="16" cy="16" r="16" stroke="#D8D8D8" stroke-width=".889"/>
        <g fill="#FFF" fill-rule="nonzero">
            <path d="M10.961 2.526L10.961 0 2.539 0 2.539 1.263 8.957 1.263 12.224 4.529 12.224 13.474 13.487 13.474 13.487 2.526z" transform="translate(9.333 8)"/>
            <path d="M8.434 5.053V2.526H.014V16H10.96V5.053H8.434zm-5.895.42h2.948v1.264H2.539V5.474zm5.895 7.58H5.487v-1.264h2.947v1.264zm0-2.106H2.54V9.684h5.895v1.263zm0-2.105H2.54V7.58h5.895v1.263z" transform="translate(9.333 8)"/>
        </g>
    </g>
</svg>
