<svg xmlns="http://www.w3.org/2000/svg" width="34" height="34" viewBox="0 0 34 34">
    <g fill="none" fill-rule="evenodd" opacity=".77" transform="translate(1 1)">
        <circle cx="16" cy="16" r="16" stroke="#D8D8D8" stroke-width=".889"/>
        <g fill="#000" fill-rule="nonzero" opacity=".4">
            <path d="M20.294 10.526V8h-8.421v1.263h6.418l3.266 3.266v8.945h1.263V10.526z"/>
            <path d="M17.768 13.053v-2.527H9.346V24h10.948V13.053h-2.526zm-5.895.42h2.947v1.264h-2.947v-1.263zm5.895 7.58H14.82v-1.264h2.948v1.264zm0-2.106h-5.895v-1.263h5.895v1.263zm0-2.105h-5.895V15.58h5.895v1.263z"/>
        </g>
    </g>
</svg>
