<svg xmlns="http://www.w3.org/2000/svg" width="24" height="24" viewBox="0 0 24 24">
    <path d="M20.412 3.497c-4.663-4.663-12.251-4.663-16.915 0-4.663 4.664-4.663 12.251 0 16.915 4.663 4.663 12.251 4.663 16.915 0 4.663-4.664 4.663-12.252 0-16.915zM16.67 16.671c-.36.36-.942.36-1.301 0l-3.416-3.416-3.577 3.578c-.36.36-.942.36-1.301 0-.36-.359-.36-.941 0-1.3l3.578-3.579L7.238 8.54c-.36-.36-.36-.942 0-1.3.36-.36.942-.36 1.301 0l3.415 3.415L15.207 7.4c.36-.36.942-.36 1.301 0 .36.36.36.942 0 1.3l-3.253 3.253 3.416 3.416c.36.36.36.942 0 1.3z" opacity=".2"/>
</svg>
