<svg xmlns="http://www.w3.org/2000/svg" width="20" height="20" viewBox="0 0 20 20">
    <g fill="#FFF" fill-rule="nonzero">
        <circle cx="10" cy="7.083" r="2.5"/>
        <path d="M10 0C4.477 0 0 4.477 0 10s4.477 10 10 10 10-4.477 10-10S15.523 0 10 0zm4.922 16.714v-1.376a4.922 4.922 0 0 0-9.844 0v1.376A8.312 8.312 0 0 1 1.667 10a8.333 8.333 0 1 1 16.666 0 8.312 8.312 0 0 1-3.411 6.714z"/>
    </g>
</svg>
