<svg xmlns="http://www.w3.org/2000/svg" width="21" height="16" viewBox="0 0 21 16">
    <g fill="#FFF">
        <path d="M19.376 15.08H5.74c-.562 0-1.017-.455-1.017-1.017 0-.562.455-1.018 1.017-1.018h13.637c.562 0 1.018.456 1.018 1.018s-.455 1.017-1.018 1.017zM19.376 8.693H5.74c-.562 0-1.017-.456-1.017-1.018s.455-1.017 1.017-1.017h13.637c.562 0 1.018.455 1.018 1.017 0 .562-.455 1.018-1.018 1.018zM19.376 2.306H5.74c-.562 0-1.017-.456-1.017-1.018S5.177.27 5.739.27h13.637c.562 0 1.018.456 1.018 1.018s-.455 1.018-1.018 1.018z"/>
        <circle cx="1.367" cy="1.367" r="1.367"/>
        <circle cx="1.367" cy="7.675" r="1.367"/>
        <circle cx="1.367" cy="13.984" r="1.367"/>
    </g>
</svg>
