<svg xmlns="http://www.w3.org/2000/svg" width="16" height="16" viewBox="0 0 16 16">
    <g fill="#F00" fill-rule="nonzero">
        <path d="M9.98 8.65a.665.665 0 0 0-.665.665v2.662a.666.666 0 0 1-.665.665H6.654v-9.98c0-.569-.362-1.076-.907-1.265L5.55 1.33h3.1c.367 0 .665.299.665.665v1.996a.665.665 0 1 0 1.33 0V1.996C10.646.896 9.75 0 8.65 0H1.497c-.025 0-.046.011-.071.015C1.394.012 1.363 0 1.33 0 .597 0 0 .597 0 1.33v11.977c0 .569.362 1.076.906 1.265l4.004 1.335c.136.042.271.062.413.062.734 0 1.33-.597 1.33-1.33v-.666H8.65c1.1 0 1.996-.896 1.996-1.996V9.315a.665.665 0 0 0-.665-.665z"/>
        <path d="M15.774 6.183l-2.662-2.661a.665.665 0 0 0-1.135.47v1.996H9.315a.666.666 0 0 0 0 1.331h2.662v1.996a.667.667 0 0 0 1.135.47l2.662-2.66c.26-.261.26-.682 0-.942z"/>
    </g>
</svg>
