<svg xmlns="http://www.w3.org/2000/svg" width="58" height="103" viewBox="0 0 58 103">
    <g fill="none" fill-rule="nonzero">
        <path fill="#545C66" d="M57.6 93.006c0 5.28-4.32 9.6-9.6 9.6H9.6c-5.28 0-9.6-4.32-9.6-9.6V16.198c0-5.28 4.32-9.6 9.6-9.6H48c5.28 0 9.6 4.32 9.6 9.6v76.808z"/>
        <path fill="#2E4057" d="M57.6 86.602c0 5.28-4.32 9.6-9.6 9.6H9.6c-5.28 0-9.6-4.32-9.6-9.6V9.794c0-5.28 4.32-9.6 9.6-9.6H48c5.28 0 9.6 4.32 9.6 9.6v76.808z"/>
        <path fill="#AAB2BD" d="M28.8 85.794c1.76 0 3.2 1.44 3.2 3.2a3.2 3.2 0 0 1-3.2 3.2 3.2 3.2 0 0 1-3.2-3.2c0-1.76 1.44-3.2 3.2-3.2z"/>
        <path fill="#5D9CEC" d="M24.048 7.397a1.605 1.605 0 0 1-1.608-1.6c0-.885.707-1.6 1.59-1.6h.018a1.6 1.6 0 1 1 0 3.2z"/>
        <path fill="#545C66" d="M33.6 7.397h-4.8c-.885 0-1.6-.715-1.6-1.6 0-.885.715-1.6 1.6-1.6h4.8c.885 0 1.6.715 1.6 1.6 0 .885-.715 1.6-1.6 1.6z"/>
        <path fill="#FFF" d="M3.2 11.397h51.2v70.4H3.2z"/>
        <path fill="#FFB34A" d="M28.8 22.603c8.832 0 16 7.168 16 16s-7.168 16-16 16-16-7.168-16-16 7.168-16 16-16z"/>
        <path fill="#FFB34A" d="M28.8 56.203c-9.704 0-17.6-7.896-17.6-17.6s7.896-17.6 17.6-17.6 17.6 7.896 17.6 17.6-7.896 17.6-17.6 17.6zm0-32c-7.94 0-14.4 6.46-14.4 14.4 0 7.941 6.46 14.4 14.4 14.4s14.4-6.459 14.4-14.4c0-7.94-6.46-14.4-14.4-14.4z"/>
        <path fill="#FFF" d="M25.602 45.002c-.41 0-.82-.157-1.132-.47l-3.196-3.196a1.598 1.598 0 0 1 0-2.262 1.598 1.598 0 0 1 2.262 0l3.197 3.196a1.598 1.598 0 0 1-1.131 2.732z"/>
        <path fill="#FFF" d="M25.602 45.002c-.41 0-.82-.157-1.132-.47a1.598 1.598 0 0 1 0-2.262l9.7-9.699a1.598 1.598 0 0 1 2.262 0 1.598 1.598 0 0 1 0 2.263l-9.7 9.699a1.596 1.596 0 0 1-1.13.469z"/>
        <g fill="#CCD1D9">
            <path d="M44.798 62.598H12.802c-.885 0-1.6-.715-1.6-1.6 0-.884.715-1.6 1.6-1.6h31.996c.885 0 1.6.716 1.6 1.6 0 .885-.715 1.6-1.6 1.6zM44.798 67.398H12.802c-.885 0-1.6-.715-1.6-1.6 0-.884.715-1.6 1.6-1.6h31.996c.885 0 1.6.716 1.6 1.6 0 .885-.715 1.6-1.6 1.6zM36.798 72.198H20.802c-.885 0-1.6-.715-1.6-1.6 0-.884.715-1.6 1.6-1.6h15.996c.885 0 1.6.716 1.6 1.6 0 .885-.715 1.6-1.6 1.6z"/>
        </g>
    </g>
</svg>
